Gus Lipkin’s Awesome Code - 31 2020-04: Passport Processing
…
── Attaching packages ─────────────────────────────────────── tidyverse 1.3.2 ──
✔ ggplot2 3.4.0      ✔ purrr   0.3.5 
✔ tibble  3.1.8      ✔ dplyr   1.0.10
✔ tidyr   1.2.1      ✔ stringr 1.4.1 
✔ readr   2.1.3      ✔ forcats 0.5.2 
── Conflicts ────────────────────────────────────────── tidyverse_conflicts() ──
✖ dplyr::filter() masks stats::filter()
✖ dplyr::lag()    masks stats::lag()

library(readxl)

df <- read_excel("input.xls")
df

# A tibble: 1,169 × 8
   X1         X2          X3            X4         X5    X6    X7    X8   
   <chr>      <chr>       <chr>         <chr>      <chr> <chr> <chr> <chr>
 1 byr:2024   iyr:2016    <NA>          <NA>       <NA>  <NA>  <NA>  <NA> 
 2 eyr:2034   ecl:zzz     pid:985592671 hcl:033b48 <NA>  <NA>  <NA>  <NA> 
 3 hgt:181    cid:166     <NA>          <NA>       <NA>  <NA>  <NA>  <NA> 
 4 <NA>       <NA>        <NA>          <NA>       <NA>  <NA>  <NA>  <NA> 
 5 hgt:66cm   <NA>        <NA>          <NA>       <NA>  <NA>  <NA>  <NA> 
 6 pid:152cm  <NA>        <NA>          <NA>       <NA>  <NA>  <NA>  <NA> 
 7 hcl:cfb18a eyr:1947    <NA>          <NA>       <NA>  <NA>  <NA>  <NA> 
 8 byr:2020   ecl:zzz     iyr:2029      <NA>       <NA>  <NA>  <NA>  <NA> 
 9 <NA>       <NA>        <NA>          <NA>       <NA>  <NA>  <NA>  <NA> 
10 ecl:gry    hcl:#888785 eyr:2023      cid:63     <NA>  <NA>  <NA>  <NA> 
# … with 1,159 more rows
…
passports <- testDF
passports

# A tibble: 299 × 8
   X1          X2            X3            X4            X5    X6    X7    X8   
   <chr>       <chr>         <chr>         <chr>         <chr> <chr> <chr> <chr>
 1 byr:2024    iyr:2016      eyr:2034      ecl:zzz       pid:… hcl:… hgt:… cid:…
 2 hgt:66cm    pid:152cm     hcl:cfb18a    eyr:1947      byr:… ecl:… iyr:… <NA> 
 3 ecl:gry     hcl:#888785   eyr:2023      cid:63        iyr:… hgt:… pid:… <NA> 
 4 pid:#5e832a ecl:dne       hcl:#7d3b0c   byr:2018      eyr:… hgt:… iyr:… cid:…
 5 hcl:#888785 ecl:oth       eyr:2025      pid:597580472 iyr:… hgt:… byr:… cid:…
 6 eyr:2029    cid:145       iyr:2026      pid:178cm     hgt:… ecl:… hcl:… byr:…
 7 eyr:2024    ecl:amb       pid:349191561 iyr:2018      hgt:… byr:… hcl:… <NA> 
 8 byr:1998    pid:408617933 hcl:#fffffd   hgt:193cm     eyr:… ecl:… iyr:… <NA> 
 9 eyr:1964    byr:2026      hcl:#cfa07d   hgt:154cm     pid:… cid:… iyr:… ecl:…
10 hgt:161cm   pid:021086946 iyr:2020      ecl:blu       eyr:… byr:… <NA>  <NA> 
# … with 289 more rows
…
